...................
----------------------------------------------------------------------
Ran 19 tests in 0.015s

OK
Name             Stmts   Miss Branch BrPart  Cover   Missing
------------------------------------------------------------
Collatz.py          34      0     12      0   100%
TestCollatz.py      83      0      0      0   100%
------------------------------------------------------------
TOTAL              117      0     12      0   100%
