34270 34270 55
60922 60922 61
23244 23244 52
3757 3757 88
34679 34679 130
24841 24841 96
73456 73456 175
66869 66869 69
81723 81723 152
11853 11853 38
86282 86282 33
58891 58891 167
45094 45094 208
61641 61641 149
73743 73743 95
79395 79395 77
65860 65860 118
64998 64998 100
16990 16990 85
87503 87503 227
52133 52133 159
38135 38135 55
30555 30555 135
11583 11583 113
33740 33740 60
28806 28806 166
39735 39735 125
25050 25050 114
43202 43202 71
7775 7775 53
77612 77612 77
52928 52928 48
69450 69450 82
94923 94923 222
71979 71979 188
34488 34488 174
30365 30365 179
59659 59659 118
2944 2944 23
20700 20700 150
46446 46446 146
15876 15876 147
3638 3638 163
93799 93799 134
29901 29901 104
6573 6573 76
24076 24076 44
72305 72305 43
91549 91549 116
9687 9032 260
13681 12296 276
19038 15140 279
11045 8685 268
11602 11588 206
3808 2136 238
5413 3860 215
12008 8037 268
14269 14101 196
11965 7860 268
12993 11517 263
15281 14856 271
13038 8215 268
12814 10104 268
16429 11688 276
19792 18562 274
19466 15304 279
20880 16006 279
3352 2100 217
16106 12973 276
2431 979 183
8559 6723 257
11511 10065 268
6555 5844 262
20380 19913 243
452 297 144
12306 11018 250
18040 16571 279
8206 7045 252
11848 11262 237
12323 10853 268
16556 15569 266
10486 6958 260
5300 2451 238
8016 5232 262
16564 15700 266
11690 6839 268
17195 14249 271
20407 15969 279
6901 2441 262
8171 7016 252
440 225 144
5434 1194 238
11007 6765 268
9579 4638 262
12123 11583 250
8449 3930 262
20159 18198 274
13612 12538 276
4795 8337 262
1624 4806 238
6085 6928 262
10884 14679 276
13134 14073 276
5848 7195 262
2688 5688 238
9476 14263 276
13751 18230 279
7461 8250 252
1797 2008 175
16141 16783 266
17818 18085 248
285 3916 238
11152 12983 263
232 842 171
13665 16944 271
5731 9192 262
17265 20251 279
14533 19229 279
7241 7561 239
5451 9096 262
16926 19491 279
10475 13498 276
187 4651 238
18706 21989 274
11051 15411 276
18922 20333 274
4 1614 182
7065 10085 260
4041 4704 215
9904 13150 268
14466 14852 271
7766 9638 260
14938 16830 271
13490 14022 258
18117 20702 274
8159 11741 268
4308 6717 262
785 3116 217
9292 13821 276
11683 12479 263
16412 17974 279
17211 21222 279
2952 7825 262
153 2507 209
3611 6112 238
10130 13986 276
18826 21023 274
1 1000000 525
