142 397 144
851 1437 182
425 688 145
322 1041 179
927 1612 182
819 1556 182
448 675 145
941 1465 182
741 800 153
500 800 171
565 1457 182
778 1281 182
394 820 171
610 1318 182
213 1018 179
197 521 144
366 1024 179
35 859 171
731 808 153
29 528 144
855 1082 179
427 452 116
988 1947 182
771 789 153
831 918 179
768 1419 182
361 1154 179
310 993 179
648 813 171
827 1386 182
83 1034 179
674 867 171
91 1083 179
849 872 179
396 779 171
764 1646 182
582 1539 182
44 737 171
382 1315 182
252 720 171
913 1525 182
896 1643 182
749 1642 182
685 1046 179
987 1718 182
33 559 144
49 788 171
635 1292 182
778 1105 179
165 515 144
385 778 171
912 1029 174
105 145 122
975 1594 182
130 965 179
563 758 171
627 877 179
972 1516 182
247 1037 179
402 954 179
49 172 125
147 510 144
594 1146 179
206 407 144
502 1160 179
192 458 144
756 1368 182
5 448 144
694 748 171
324 786 171
101 983 179
627 825 171
458 575 142
429 526 142
270 1206 182
204 936 179
485 1309 182
603 865 171
21 338 144
736 1700 182
512 1426 182
626 1240 182
728 977 179
404 1230 182
892 1384 182
208 928 179
331 665 145
685 1478 182
162 622 144
654 1044 179
749 1129 179
500 715 171
233 278 128
254 972 179
955 1427 182
811 964 179
806 1195 182
339 498 142
709 829 153
459 1010 179
20 367 144
129 1027 179
236 1229 182
749 1030 179
749 1073 179
707 1365 182
483 1126 179
316 490 144
566 799 171
554 1168 182
710 1562 182
396 1367 182
204 1199 182
655 1234 182
263 408 144
164 492 144
837 1085 179
108 539 144
666 675 145
577 1247 182
518 860 171
463 1411 182
668 1545 182
171 689 145
673 1180 182
590 945 179
663 1199 182
748 1735 182
90 189 125
786 1582 182
487 526 142
775 1626 182
251 426 144
414 711 171
805 1677 182
698 776 171
25 128 119
24 422 144
82 1530 182
251 368 144
256 1082 179
299 858 171
759 1305 182
144 700 145
143 726 171
646 772 171
792 887 179
206 458 144
985 1318 182
1472 520 182
454 181 144
1615 896 182
645 462 142
905 853 179
1069 770 179
1401 793 182
1013 663 179
1099 581 179
1457 880 182
759 421 171
1330 544 182
1223 739 182
1922 926 182
1443 639 182
87 2 116
1548 620 182
921 544 179
484 393 134
776 116 171
1621 802 182
828 530 171
945 814 179
1238 803 182
236 225 128
535 393 142
857 324 171
666 86 145
1723 870 182
845 92 171
655 302 145
1105 634 179
1158 357 179
443 271 144
1516 562 182
650 501 145
1054 956 156
1515 972 182
1278 699 182
1320 586 182
126 125 109
121 125 109
528 172 144
962 303 179
806 727 153
529 127 144
708 190 171
677 532 145
1153 385 179
1124 782 179
906 1586 182
