1 10 20
100 200 125
201 210 89
900 1000 174
35 76 116
78 105 119
153 327 144
1 19 21
139 29 122
278 149 128
288 438 144
567 448 142
577 706 171
716 866 153
876 995 174
1005 1145 169
1274 1155 182
1413 1284 177
1423 1573 172
1702 1583 180
1712 1842 180
1971 1852 175
1981 2110 170
2260 2120 183
2270 2389 183
2399 2529 209
2539 2658 191
2798 2668 173
2808 2927 217
3067 2937 173
3196 3077 199
3336 3206 181
3465 3346 181
3475 3605 194
3605 3615 119
3734 3615 238
3874 3744 176
3884 4003 189
4143 4013 189
4153 4272 202
4272 4282 127
4422 4282 215
4422 4541 184
4681 4551 184
4681 4810 197
4810 4820 122
4960 5079 179
4960 5089 179
5089 5219 179
5219 5229 179
5229 5348 192
5488 5358 192
5488 5617 236
5617 5627 174
5757 5627 205
5886 5767 218
5886 6026 187
6026 6036 187
6155 6036 187
6155 6295 262
6295 6305 156
6434 6305 200
6564 6434 200
6564 6693 244
6693 6703 138
6703 6833 182
6833 6843 151
6962 6843 257
7102 6972 195
7102 7231 195
7231 7241 164
7371 7241 195
7371 7500 239
7510 7371 239
7640 7510 208
7640 7650 177
7779 7650 177
7909 7779 221
7919 8038 252
8038 8048 190
8178 8048 190
8178 8188 159
8307 8188 190
8317 8447 234
8317 8457 234
8447 8457 203
8576 8457 203
8576 8586 172
8716 8586 203
8726 8716 172
8845 8726 216
8985 8845 247
8985 8995 185
9124 8995 185
9124 9114 154
9254 9114 229
9254 9264 260
9383 9264 198
9383 9393 123
9523 9393 198
9523 9533 198
9652 9533 198
9652 9662 167
9792 9662 198
9792 9802 167
9921 9802 242
9921 9931 136
1 1 1
2 2 2
101 101 26
