....................
----------------------------------------------------------------------
Ran 20 tests in 0.141s

OK
Name             Stmts   Miss Branch BrPart  Cover   Missing
------------------------------------------------------------
Collatz.py          34      0     12      0   100%
TestCollatz.py      91      0      0      0   100%
------------------------------------------------------------
TOTAL              125      0     12      0   100%
