...........................
----------------------------------------------------------------------
Ran 27 tests in 0.047s

OK
Name             Stmts   Miss Branch BrPart  Cover   Missing
------------------------------------------------------------
Collatz.py          62     19     26      2    67%   158, 172-192
TestCollatz.py     117      0      0      0   100%
------------------------------------------------------------
TOTAL              179     19     26      2    86%
