.........................
----------------------------------------------------------------------
Ran 25 tests in 0.064s

OK
Name             Stmts   Miss Branch BrPart  Cover   Missing
------------------------------------------------------------
Collatz.py          57      0     28      0   100%
TestCollatz.py     103      0      0      0   100%
------------------------------------------------------------
TOTAL              160      0     28      0   100%
