.......................
----------------------------------------------------------------------
Ran 23 tests in 0.014s

OK
Name             Stmts   Miss Branch BrPart  Cover   Missing
------------------------------------------------------------
Collatz.py          39      4     12      0    92%   92-93, 102-103
TestCollatz.py      99      0      0      0   100%
------------------------------------------------------------
TOTAL              138      4     12      0    97%
