1 10 20
100 200 125
201 210 89
900 1000 174
153784 374016 443
629827 890073 525
835641 279081 509
783686 83001 509
779822 424982 509
889373 516322 525
443310 57583 449
773351 797695 468
377735 423047 449
709181 821235 468
541792 317057 470
87937 57260 351
23157 21849 269
16423 40882 324
4030 38072 324
33747 52201 324
73824 34491 340
11257 17179 276
44861 87083 351
26496 22850 282
37615 64123 340
66179 59452 335
599671 739567 509
819352 764520 468
232318 383418 441
744799 945507 525
305871 669267 509
409977 955015 525
337742 918217 525
236362 439567 449
709711 944979 525
287764 673623 509
313875 440966 449
613145 676917 509
366995 723708 509
758480 952175 525
468565 995072 525
128305 655688 509
710274 744973 424
429285 575135 470
57812 18455 340
604825 919480 525
890738 352618 525
17 26 24
8 12 20
18 35 112
2 11 20
5 32 112
96 486 144
75 483 144
223 440 144
227 79 125
401 180 144
50 10 112
506 255 144
123 9 119
29489 2395 308
90823 2389 351
967847 923478 507
765 432 171
321 987 179
53893 590 340
10 10 7
100 100 26
555 5555 238
737 93782 351
21453 627428 509
6264 23556 282
99 9999 262
77 7 116
1010 5123 238
9371 681 262
77 7 116
5124 39801 324
40560 83201 351
20 20 8
9999 9999 92
1 9999 262
340 3000 217
3000 340 217
500 101 144
687325 371621 509
501494 27586 449
127998 875294 525
720319 840125 525
206243 529395 470
123159 943665 525
274329 638847 509
869873 108551 525
679709 252875 509
671369 851411 525
563321 4374 470
977514 157326 525
283320 246676 407
953968 372738 525
170359 812964 509
596196 331782 470
164334 180361 352
446639 486285 444
44712 655583 509
130827 851430 525
550766 370816 470
101367 472776 449
427110 121954 449
422251 610031 470
893103 183514 525
131532 421622 449
683017 819743 504
422243 781830 509
926936 121879 525
868278 524402 525
95928 58016 351
865966 247564 525
317458 708458 509
728289 771109 468
135769 78348 354
494991 556691 470
126721 54197 354
422796 986160 525
640974 627110 416
736054 920305 525
781093 862970 525
74175 309501 443
