...................
----------------------------------------------------------------------
Ran 19 tests in 0.482s

OK
Name             Stmts   Miss Branch BrPart  Cover   Missing
------------------------------------------------------------
Collatz.py          52      0     18      0   100%
TestCollatz.py      83      0      0      0   100%
------------------------------------------------------------
TOTAL              135      0     18      0   100%
