.........................
----------------------------------------------------------------------
Ran 25 tests in 10.847s

OK
Name             Stmts   Miss Branch BrPart  Cover   Missing
------------------------------------------------------------
Collatz.py          39      0     16      1    98%   50->55
TestCollatz.py     111      0      0      0   100%
------------------------------------------------------------
TOTAL              150      0     16      1    99%
