....................
----------------------------------------------------------------------
Ran 20 tests in 0.021s

OK
Name             Stmts   Miss Branch BrPart  Cover   Missing
------------------------------------------------------------
Collatz.py          33      0     12      0   100%
TestCollatz.py      84      0      0      0   100%
------------------------------------------------------------
TOTAL              117      0     12      0   100%
